tezt/_regressions/tx_rollup_finalize_too_recent_commitment.out

./tezos-client --wait none submit tx rollup batch 626c6f62 to '[TX_ROLLUP_HASH]' from '[PUBLIC_KEY_HASH]'
Node is bootstrapped.
Estimated gas: 2257.424 units (will add 100 for safety)
Estimated storage: no bytes added
Operation successfully injected in the node.
Operation hash is '[OPERATION_HASH]'
NOT waiting for the operation to be included.
Use command
  tezos-client wait for [OPERATION_HASH] to be included --confirmations 1 --branch [BLOCK_HASH]
and/or an external block explorer to make sure that it has been included.
This sequence of operations was run:
  Manager signed operations:
    From: [PUBLIC_KEY_HASH]
    Fee to the baker: ꜩ0.000489
    Expected counter: 2
    Gas limit: 2358
    Storage limit: 0 bytes
    Balance updates:
      [PUBLIC_KEY_HASH] ... -ꜩ0.000489
      payload fees(the block proposer) ....... +ꜩ0.000489
    Tx rollup transaction:[TX_ROLLUP_HASH], 4 bytes, From: [PUBLIC_KEY_HASH]
      This tx rollup submit operation was successfully applied
      Balance updates:
        
      Consumed gas: 2257.424


./tezos-client rpc get '/chains/main/blocks/head/context/tx_rollup/[TX_ROLLUP_HASH]/inbox/0'
{ "contents": [ "[TX_ROLLUP_MESSAGE_HASH]" ],
  "cumulated_size": 4,
  "hash": "[TX_ROLLUP_INBOX_HASH]" }

./tezos-client --wait none submit tx rollup commitment 0 '[TX_ROLLUP_INBOX_HASH]'  '[TX_ROLLUP_MESSAGE_RESULT_HASH]' to '[TX_ROLLUP_HASH]' from '[PUBLIC_KEY_HASH]'
Node is bootstrapped.
Estimated gas: 3280.956 units (will add 100 for safety)
Estimated storage: no bytes added
Operation successfully injected in the node.
Operation hash is '[OPERATION_HASH]'
NOT waiting for the operation to be included.
Use command
  tezos-client wait for [OPERATION_HASH] to be included --confirmations 1 --branch [BLOCK_HASH]
and/or an external block explorer to make sure that it has been included.
This sequence of operations was run:
  Manager signed operations:
    From: [PUBLIC_KEY_HASH]
    Fee to the baker: ꜩ0.000656
    Expected counter: 3
    Gas limit: 3381
    Storage limit: 0 bytes
    Balance updates:
      [PUBLIC_KEY_HASH] ... -ꜩ0.000656
      payload fees(the block proposer) ....... +ꜩ0.000656
    Tx rollup commitment:[TX_ROLLUP_HASH], commitment 0 : messages = [TX_ROLLUP_MESSAGE_RESULT_HASH] predecessor  for inbox [TX_ROLLUP_INBOX_HASH]
      From: [PUBLIC_KEY_HASH]
      This tx rollup commit operation was successfully applied
      Balance updates:
        
      Consumed gas: 3280.956


./tezos-client --wait none submit tx rollup finalize commitment to '[TX_ROLLUP_HASH]' from '[PUBLIC_KEY_HASH]'
Node is bootstrapped.
This simulation failed:
  Manager signed operations:
    From: [PUBLIC_KEY_HASH]
    Fee to the baker: ꜩ0
    Expected counter: 4
    Gas limit: 1040000
    Storage limit: 60000 bytes
    Tx rollup finalize commitment:[TX_ROLLUP_HASH] 
    From: [PUBLIC_KEY_HASH]
    This operation FAILED.

Error:
  { "id": "proto.alpha.tx_rollup_no_commitment_to_finalize",
  "description": "There is no commitment to finalize", "data": {} }
